1/31/2019 3:09:44 PM : Could not load file or assembly 'Oracle.DataAccess, Version=4.112.2.0, Culture=neutral, PublicKeyToken=89b483f429c47342' or one of its dependencies. An attempt was made to load a program with an incorrect format.
1/31/2019 3:09:45 PM : Service NuanceVBDataReplicator was not found on computer '.'.
1/31/2019 3:09:45 PM : Service NuanceVBDataReplicator was not found on computer '.'.
1/31/2019 4:00:56 PM : Could not load file or assembly 'Oracle.DataAccess, Version=4.112.2.0, Culture=neutral, PublicKeyToken=89b483f429c47342' or one of its dependencies. An attempt was made to load a program with an incorrect format.
1/31/2019 4:00:56 PM : Service NuanceVBDataReplicator was not found on computer '.'.
1/31/2019 4:00:56 PM : Service NuanceVBDataReplicator was not found on computer '.'.
