2/1/2019 4:25:00 PM : 
2/1/2019 4:25:00 PM : Cannot open W3SVC service on computer '.'.
2/1/2019 4:25:00 PM : Could not find a part of the path 'D:\Program Files\Nuance SecuritySuite\Config\Resources.config'.
2/1/2019 4:25:01 PM : Value cannot be null.
Parameter name: url
2/1/2019 4:25:01 PM : 
2/1/2019 4:25:01 PM : Service NuanceVBDataReplicator was not found on computer '.'.
2/1/2019 4:25:01 PM : Service NuanceVBDataReplicator was not found on computer '.'.
2/1/2019 4:57:58 PM : 
2/1/2019 4:57:58 PM : Cannot open W3SVC service on computer '.'.
2/1/2019 4:57:58 PM : Could not find a part of the path 'D:\Program Files\Nuance SecuritySuite\Config\Resources.config'.
2/1/2019 4:57:58 PM : Value cannot be null.
Parameter name: url
2/1/2019 4:57:58 PM : 
2/1/2019 4:57:58 PM : Service NuanceVBDataReplicator was not found on computer '.'.
2/1/2019 4:57:58 PM : Service NuanceVBDataReplicator was not found on computer '.'.
2/1/2019 5:00:13 PM : 
2/1/2019 5:00:13 PM : Cannot open W3SVC service on computer '.'.
2/1/2019 5:00:13 PM : Could not find a part of the path 'D:\Program Files\Nuance SecuritySuite\Config\Resources.config'.
2/1/2019 5:00:13 PM : Value cannot be null.
Parameter name: url
2/1/2019 5:00:13 PM : 
2/1/2019 5:00:14 PM : Service NuanceVBDataReplicator was not found on computer '.'.
2/1/2019 5:00:14 PM : Service NuanceVBDataReplicator was not found on computer '.'.
2/1/2019 5:01:33 PM : 
2/1/2019 5:01:33 PM : Cannot open W3SVC service on computer '.'.
2/1/2019 5:01:33 PM : Could not find a part of the path 'D:\Program Files\Nuance SecuritySuite\Config\Resources.config'.
2/1/2019 5:01:33 PM : Value cannot be null.
Parameter name: url
2/1/2019 5:01:33 PM : 
2/1/2019 5:01:33 PM : Service NuanceVBDataReplicator was not found on computer '.'.
2/1/2019 5:01:33 PM : Service NuanceVBDataReplicator was not found on computer '.'.
2/1/2019 5:02:19 PM : 
2/1/2019 5:02:20 PM : Cannot open W3SVC service on computer '.'.
2/1/2019 5:02:20 PM : Could not find a part of the path 'D:\Program Files\Nuance SecuritySuite\Config\Resources.config'.
2/1/2019 5:02:20 PM : Value cannot be null.
Parameter name: url
2/1/2019 5:02:20 PM : 
2/1/2019 5:02:20 PM : Service NuanceVBDataReplicator was not found on computer '.'.
2/1/2019 5:02:20 PM : Service NuanceVBDataReplicator was not found on computer '.'.
2/1/2019 5:03:38 PM : 
2/1/2019 5:03:38 PM : Cannot open W3SVC service on computer '.'.
2/1/2019 5:03:38 PM : Could not find a part of the path 'D:\Program Files\Nuance SecuritySuite\Config\Resources.config'.
2/1/2019 5:03:38 PM : Value cannot be null.
Parameter name: url
2/1/2019 5:03:38 PM : 
2/1/2019 5:03:39 PM : Service NuanceVBDataReplicator was not found on computer '.'.
2/1/2019 5:03:39 PM : Service NuanceVBDataReplicator was not found on computer '.'.
2/1/2019 5:07:27 PM : 
2/1/2019 5:07:27 PM : Cannot open W3SVC service on computer '.'.
2/1/2019 5:07:27 PM : Could not find a part of the path 'D:\Program Files\Nuance SecuritySuite\Config\Resources.config'.
2/1/2019 5:07:27 PM : Value cannot be null.
Parameter name: url
2/1/2019 5:07:27 PM : 
2/1/2019 5:07:27 PM : Service NuanceVBDataReplicator was not found on computer '.'.
2/1/2019 5:07:27 PM : Service NuanceVBDataReplicator was not found on computer '.'.
2/1/2019 5:08:54 PM : 
2/1/2019 5:08:54 PM : Cannot open W3SVC service on computer '.'.
2/1/2019 5:08:54 PM : Could not find a part of the path 'D:\Program Files\Nuance SecuritySuite\Config\Resources.config'.
2/1/2019 5:08:54 PM : Value cannot be null.
Parameter name: url
2/1/2019 5:08:54 PM : 
2/1/2019 5:08:54 PM : Service NuanceVBDataReplicator was not found on computer '.'.
2/1/2019 5:08:54 PM : Service NuanceVBDataReplicator was not found on computer '.'.
2/1/2019 5:11:20 PM : 
2/1/2019 5:11:20 PM : Cannot open W3SVC service on computer '.'.
2/1/2019 5:11:20 PM : Could not find a part of the path 'D:\Program Files\Nuance SecuritySuite\Config\Resources.config'.
2/1/2019 5:11:20 PM : Value cannot be null.
Parameter name: url
2/1/2019 5:11:20 PM : 
2/1/2019 5:11:20 PM : Service NuanceVBDataReplicator was not found on computer '.'.
2/1/2019 5:11:20 PM : Service NuanceVBDataReplicator was not found on computer '.'.
2/1/2019 5:12:34 PM : 
2/1/2019 5:12:34 PM : Cannot open W3SVC service on computer '.'.
2/1/2019 5:12:34 PM : Could not find a part of the path 'D:\Program Files\Nuance SecuritySuite\Config\Resources.config'.
2/1/2019 5:12:34 PM : Value cannot be null.
Parameter name: url
2/1/2019 5:12:34 PM : 
2/1/2019 5:12:34 PM : Service NuanceVBDataReplicator was not found on computer '.'.
2/1/2019 5:12:34 PM : Service NuanceVBDataReplicator was not found on computer '.'.
2/1/2019 5:13:52 PM : 
2/1/2019 5:13:52 PM : Cannot open W3SVC service on computer '.'.
2/1/2019 5:13:52 PM : Could not find a part of the path 'D:\Program Files\Nuance SecuritySuite\Config\Resources.config'.
2/1/2019 5:13:52 PM : Value cannot be null.
Parameter name: url
2/1/2019 5:13:52 PM : 
2/1/2019 5:13:52 PM : Service NuanceVBDataReplicator was not found on computer '.'.
2/1/2019 5:13:52 PM : Service NuanceVBDataReplicator was not found on computer '.'.
2/1/2019 5:16:34 PM : 
2/1/2019 5:16:34 PM : Cannot open W3SVC service on computer '.'.
2/1/2019 5:16:34 PM : Could not find a part of the path 'D:\Program Files\Nuance SecuritySuite\Config\Resources.config'.
2/1/2019 5:16:34 PM : Value cannot be null.
Parameter name: url
2/1/2019 5:16:34 PM : 
2/1/2019 5:16:34 PM : Service NuanceVBDataReplicator was not found on computer '.'.
2/1/2019 5:16:34 PM : Service NuanceVBDataReplicator was not found on computer '.'.
2/1/2019 5:43:30 PM : 
2/1/2019 5:43:30 PM : Cannot open W3SVC service on computer '.'.
2/1/2019 5:43:30 PM : Could not find a part of the path 'D:\Program Files\Nuance SecuritySuite\Config\Resources.config'.
2/1/2019 5:43:30 PM : Could not find a part of the path 'E:\Program Files\Nuance\HUSA Reports\HUSA_Reports.exe.Config'.
2/1/2019 5:43:30 PM : 
2/1/2019 5:43:30 PM : Service NuanceVBDataReplicator was not found on computer '.'.
2/1/2019 5:43:30 PM : Service NuanceVBDataReplicator was not found on computer '.'.
2/1/2019 5:49:15 PM : 
2/1/2019 5:49:15 PM : Cannot open W3SVC service on computer '.'.
2/1/2019 5:49:15 PM : Could not find a part of the path 'D:\Program Files\Nuance SecuritySuite\Config\Resources.config'.
2/1/2019 5:49:15 PM : Could not find a part of the path 'E:\Program Files\Nuance\HUSA Reports\HUSA_Reports.exe.Config'.
2/1/2019 5:49:15 PM : 
2/1/2019 5:49:15 PM : Service NuanceVBDataReplicator was not found on computer '.'.
2/1/2019 5:49:15 PM : Service NuanceVBDataReplicator was not found on computer '.'.
